<?xml version="1.0" encoding="utf-8"?>
<!-- Generator: Adobe Illustrator 23.0.3, SVG Export Plug-In . SVG Version: 6.00 Build 0)  -->
<svg version="1.1" id="Capa_1" xmlns="http://www.w3.org/2000/svg" xmlns:xlink="http://www.w3.org/1999/xlink" x="0px" y="0px"
	 viewBox="0 0 64 64" style="enable-background:new 0 0 64 64;" xml:space="preserve">
<style type="text/css">
	.st0{fill:#FFDC5D;}
	.st1{fill:#016D38;}
</style>
<path d="M52.99,13.94c-0.01-0.09-0.02-0.18-0.05-0.27c-0.01-0.03-0.02-0.06-0.03-0.09c-0.05-0.1-0.11-0.2-0.19-0.28c0,0,0,0,0-0.01
	l-9-9c0,0,0,0,0,0c-0.08-0.08-0.18-0.14-0.28-0.19c-0.03-0.01-0.06-0.02-0.1-0.03c-0.08-0.03-0.17-0.05-0.26-0.05
	C43.04,4.01,43.02,4,43,4H13.98C12.33,4,11,5.33,11,6.98V45c0,0.55,0.45,1,1,1s1-0.45,1-1V6.98C13,6.44,13.44,6,13.98,6H42v8
	c0,0.55,0.45,1,1,1h8v30c0,0.55,0.45,1,1,1s1-0.45,1-1V14C53,13.98,52.99,13.96,52.99,13.94z M44,13V7.41L49.59,13H44z"/>
<path class="st0" d="M31.68,36.95l0.36,0.12l0.35-0.14c0.87-0.36,8.48-3.65,8.48-7.68V18.17h-1c-3.62,0-7.34-2.03-7.38-2.05
	L32,15.86l-0.48,0.27c-0.04,0.02-3.75,2.05-7.38,2.05h-1v11.07C23.14,33.96,30.81,36.66,31.68,36.95z M25.14,20.13
	c2.99-0.24,5.77-1.47,6.86-2.01c1.09,0.54,3.87,1.77,6.86,2.01v9.11c0,1.86-3.92,4.38-6.9,5.69c-2.19-0.8-6.83-3.04-6.83-5.69V20.13
	z M43.5,40c0,0.55-0.45,1-1,1h-21c-0.55,0-1-0.45-1-1s0.45-1,1-1h21C43.05,39,43.5,39.45,43.5,40z"/>
<path class="st1" d="M58.5,14h-2.3c-0.55,0-1,0.45-1,1s0.45,1,1,1h2.3c0.55,0,1,0.45,1,1v28h-55V17c0-0.55,0.45-1,1-1h2.13
	c0.55,0,1-0.45,1-1s-0.45-1-1-1H5.5c-1.66,0-3,1.35-3,3V50c0,1.66,1.35,3,3,3h22v5h-6c-0.55,0-1,0.45-1,1s0.45,1,1,1h21
	c0.55,0,1-0.45,1-1s-0.45-1-1-1h-6v-5h22c1.66,0,3-1.35,3-3V17C61.5,15.35,60.15,14,58.5,14z M34.5,58h-5v-5h5V58z M58.5,51H5.5
	c-0.55,0-1-0.45-1-1v-3h55v3C59.5,50.55,59.05,51,58.5,51z"/>
</svg>
