<?xml version="1.0" encoding="UTF-8"?>
<svg width="26px" height="33px" viewBox="0 0 26 33" version="1.1" xmlns="http://www.w3.org/2000/svg" xmlns:xlink="http://www.w3.org/1999/xlink">
    <!-- Generator: Sketch 56 (81588) - https://sketch.com -->
    <title>Group 8</title>
    <desc>Created with Sketch.</desc>
    <defs>
        <polygon id="path-1" points="0 0 25.0344828 0 25.0344828 32.9999421 0 32.9999421"></polygon>
    </defs>
    <g id="Page-1" stroke="none" stroke-width="1" fill="none" fill-rule="evenodd">
        <g id="Home-personas" transform="translate(-733.000000, -4717.000000)">
            <g id="Group-8" transform="translate(733.000000, 4717.000000)">
                <path d="M20.4827586,26.9951 L9.67241379,26.9951 C9.35777586,26.9951 9.10344828,27.2544684 9.10344828,27.5740474 C9.10344828,27.8936263 9.35777586,28.1529947 9.67241379,28.1529947 L20.4827586,28.1529947 C20.7973966,28.1529947 21.0517241,27.8936263 21.0517241,27.5740474 C21.0517241,27.2544684 20.7973966,26.9951 20.4827586,26.9951 M20.4827586,22.2627842 L8.04005172,22.2627842 C7.72541379,22.2627842 7.47108621,22.5215737 7.47108621,22.8417316 C7.47108621,23.1613105 7.72541379,23.4206789 8.04005172,23.4206789 L20.4827586,23.4206789 C20.7973966,23.4206789 21.0517241,23.1613105 21.0517241,22.8417316 C21.0517241,22.5215737 20.7973966,22.2627842 20.4827586,22.2627842 M20.4827586,17.5298895 L8.04005172,17.5298895 C7.72541379,17.5298895 7.47108621,17.7892579 7.47108621,18.1088368 C7.47108621,18.4289947 7.72541379,18.6877842 8.04005172,18.6877842 L20.4827586,18.6877842 C20.7973966,18.6877842 21.0517241,18.4289947 21.0517241,18.1088368 C21.0517241,17.7892579 20.7973966,17.5298895 20.4827586,17.5298895 M7.47108621,13.3765211 C7.47108621,13.0569421 7.72541379,12.7975737 8.04005172,12.7975737 L20.4827586,12.7975737 C20.7973966,12.7975737 21.0517241,13.0569421 21.0517241,13.3765211 C21.0517241,13.6961 20.7973966,13.9554684 20.4827586,13.9554684 L8.04005172,13.9554684 C7.72541379,13.9554684 7.47108621,13.6961 7.47108621,13.3765211" id="Fill-1" fill="#FFCD00"></path>
                <g id="Group-5">
                    <mask id="mask-2" fill="white">
                        <use xlink:href="#path-1"></use>
                    </mask>
                    <g id="Clip-4"></g>
                    <path d="M23.8965517,31.2775737 C23.8965517,31.5890474 23.6479138,31.8420474 23.3412414,31.8420474 L6.25862069,31.8420474 L6.25862069,27.2104684 C6.25862069,26.8908895 6.0042931,26.6315211 5.68965517,26.6315211 L1.13793103,26.6315211 L1.13793103,4.61704737 C1.13793103,4.30615263 1.38656897,4.05257368 1.69324138,4.05257368 L7.86196552,4.05257368 L7.86196552,5.21046842 C7.86196552,5.53004737 8.11686207,5.78941579 8.43093103,5.78941579 L17.1725172,5.78941579 C17.4865862,5.78941579 17.7414828,5.53004737 17.7414828,5.21046842 L17.7414828,4.05257368 L23.3412414,4.05257368 C23.6479138,4.05257368 23.8965517,4.30615263 23.8965517,4.61704737 L23.8965517,31.2775737 Z M5.12068966,31.0234158 L1.94244828,27.7894158 L5.12068966,27.7894158 L5.12068966,31.0234158 Z M8.99989655,2.63183684 L11.3531379,2.63183684 C11.6677759,2.63183684 11.9221034,2.37246842 11.9221034,2.05288947 C11.9221034,1.55904737 12.3163966,1.15783684 12.8017241,1.15783684 C13.2870517,1.15783684 13.6813448,1.55904737 13.6813448,2.05288947 C13.6813448,2.37246842 13.9356724,2.63183684 14.2503103,2.63183684 L16.6035517,2.63183684 L16.6035517,4.63152105 L8.99989655,4.63152105 L8.99989655,2.63183684 Z M23.3412414,2.89467895 L17.7414828,2.89467895 L17.7414828,2.05288947 C17.7414828,1.73273158 17.4865862,1.47394211 17.1725172,1.47394211 L14.7373448,1.47394211 C14.4915517,0.622889474 13.7166207,-5.78947368e-05 12.8017241,-5.78947368e-05 C11.8868276,-5.78947368e-05 11.1118966,0.622889474 10.8661034,1.47394211 L8.43093103,1.47394211 C8.11686207,1.47394211 7.86196552,1.73273158 7.86196552,2.05288947 L7.86196552,2.89467895 L1.69324138,2.89467895 C0.759568966,2.89467895 0,3.66757368 0,4.61704737 L0,27.2104684 C0,27.2232053 0.00625862069,27.2336263 0.00682758621,27.2457842 C0.0102413793,27.2984684 0.0199137931,27.3494158 0.0375517241,27.3992053 C0.0438103448,27.4177316 0.048362069,27.4362579 0.0568965517,27.4536263 C0.0830689655,27.5132579 0.117775862,27.5688368 0.165,27.6174684 C0.165568966,27.6180474 0.166137931,27.6192053 0.167275862,27.6203632 L5.28682759,32.8297316 C5.33974138,32.8829947 5.40175862,32.9258368 5.47174138,32.9553632 C5.54058621,32.9843105 5.61455172,32.9999421 5.68965517,32.9999421 L23.3412414,32.9999421 C24.2749138,32.9999421 25.0344828,32.2276263 25.0344828,31.2775737 L25.0344828,4.61704737 C25.0344828,3.66757368 24.2749138,2.89467895 23.3412414,2.89467895 L23.3412414,2.89467895 Z" id="Fill-3" fill="#006D31" mask="url(#mask-2)"></path>
                </g>
                <path d="M17.637931,8.68421053 L7.39655172,8.68421053 C7.08191379,8.68421053 6.82758621,8.94357895 6.82758621,9.26315789 C6.82758621,9.58273684 7.08191379,9.84210526 7.39655172,9.84210526 L17.637931,9.84210526 C17.952569,9.84210526 18.2068966,9.58273684 18.2068966,9.26315789 C18.2068966,8.94357895 17.952569,8.68421053 17.637931,8.68421053 M4.55172414,21.7105263 C4.08062069,21.7105263 3.69827586,22.099 3.69827586,22.5789474 C3.69827586,23.0588947 4.08062069,23.4473684 4.55172414,23.4473684 C5.02282759,23.4473684 5.40517241,23.0588947 5.40517241,22.5789474 C5.40517241,22.099 5.02282759,21.7105263 4.55172414,21.7105263 M4.55172414,17.0789474 C4.08062069,17.0789474 3.69827586,17.4674211 3.69827586,17.9473684 C3.69827586,18.4273158 4.08062069,18.8157895 4.55172414,18.8157895 C5.02282759,18.8157895 5.40517241,18.4273158 5.40517241,17.9473684 C5.40517241,17.4674211 5.02282759,17.0789474 4.55172414,17.0789474 M5.40517241,13.3157895 C5.40517241,13.7957368 5.02282759,14.1842105 4.55172414,14.1842105 C4.08062069,14.1842105 3.69827586,13.7957368 3.69827586,13.3157895 C3.69827586,12.8358421 4.08062069,12.4473684 4.55172414,12.4473684 C5.02282759,12.4473684 5.40517241,12.8358421 5.40517241,13.3157895" id="Fill-6" fill="#000000"></path>
            </g>
        </g>
    </g>
</svg>